Superstore Sales Predictor
…
6719.98

Looking at the table, it almost appears as if the Segment might be misclassified or taxinomically is not as representative of the customer-type, but instead represents the way the seller classifies the segment. For example, according to the data, Sean Miller purchased 6 videoconference units under the Home Office segment for a total sales price of $22,638.48. That seems curious as for most home offices usually one unit is only purchased. The same could be said for each of max sales found in 2012 and 2014. The expectation would be that the segments would represent Corporate as in 2013, rather than Consumer. With this in mind, we will use segment sparingly in the code and rely more heavily on Categories and Sub-categories as filters for our data.

monthly_sales <- sales %>%
  group_by(YearMonth) %>%
  summarize(
    MonthlySales = sum(Sales)
  ) %>%
  arrange(YearMonth)

monthly_sales

## # A tibble: 48 x 2
##    YearMonth MonthlySales
##    <chr>            <dbl>
##  1 2011-01         98898.
##  2 2011-02         91152.
##  3 2011-03        145729.
##  4 2011-04        116916.
##  5 2011-05        146748.
##  6 2011-06        215207.
##  7 2011-07        115510.
##  8 2011-08        207581.
##  9 2011-09        290214.
## 10 2011-10        199071.
## # ... with 38 more rows

monthly_report<- monthly_sales %>%
  mutate(
    MoM = round((MonthlySales - lag(MonthlySales))/ lag(MonthlySales)*100, 1),
    YoY = round((MonthlySales - lag(MonthlySales))/ lag(MonthlySales, 12)*100, 1)
  )
monthly_report

## # A tibble: 48 x 4
##    YearMonth MonthlySales   MoM   YoY
##    <chr>            <dbl> <dbl> <dbl>
##  1 2011-01         98898.  NA      NA
##  2 2011-02         91152.  -7.8    NA
##  3 2011-03        145729.  59.9    NA
##  4 2011-04        116916. -19.8    NA
##  5 2011-05        146748.  25.5    NA
##  6 2011-06        215207.  46.7    NA
##  7 2011-07        115510. -46.3    NA
##  8 2011-08        207581.  79.7    NA
##  9 2011-09        290214.  39.8    NA
## 10 2011-10        199071. -31.4    NA
## # ... with 38 more rows

monthly_sales_by_category <- sales %>%
  group_by(YearMonth, Category) %>%
  summarize(
    MonthlySales = sum(Sales)
  ) %>%
  arrange(YearMonth, Category)

monthly_sales_by_category

## # A tibble: 144 x 3
## # Groups:   YearMonth [48]
##    YearMonth Category        MonthlySales
##    <chr>     <fct>                  <dbl>
##  1 2011-01   Furniture             34464.
##  2 2011-01   Office Supplies       33527.
##  3 2011-01   Technology            30908.
##  4 2011-02   Furniture             30641.
##  5 2011-02   Office Supplies       22277.
##  6 2011-02   Technology            38234.
##  7 2011-03   Furniture             44780.
##  8 2011-03   Office Supplies       34395.
##  9 2011-03   Technology            66554.
## 10 2011-04   Furniture             31345.
## # ... with 134 more rows
…
