Superstore Sales Predictor
…
84.48

13999.96

0.44

Total sales have grown every year while average sales have not. It looks like a lot of small sales make up the vast majority of the revenue for this company. Quantity sold, (our sales volume), should help us understand if this supposition is true and help us determine if there are visible seasonal trends. Lets start by looking at monthly sales trends, aggregating the Quantity column by month.

monthly_sales_quantity <- sales %>% 
  group_by(year, monthAbbr) %>%
  summarise(total.qty = sum(Quantity))

tail(monthly_sales_quantity, 24)

## # A tibble: 24 x 3
## # Groups:   year [2]
##     year monthAbbr total.qty
##    <dbl> <ord>         <int>
##  1  2013 Jan            2413
##  2  2013 Feb            2102
##  3  2013 Mar            2686
##  4  2013 Apr            2688
##  5  2013 May            3808
##  6  2013 Jun            5327
##  7  2013 Jul            3252
##  8  2013 Aug            4934
##  9  2013 Sep            5793
## 10  2013 Oct            3883
## # ... with 14 more rows
…
Sales and Profit Relationships

Now to plot the multiple line plots to look at the relationship between the Sales and Profit columns by year by month.

monthly_sales_profit <- sales %>%
  group_by(month) %>% 
  summarise_at(c("Sales", "Profit"), sum)

MSP <-monthly_sales_profit %>% 
  gather(key = "variable", value = "values", -month)

MSP

## # A tibble: 96 x 3
##    month      variable  values
##    <date>     <chr>      <dbl>
##  1 2011-01-01 Sales     98898.
##  2 2011-02-01 Sales     91152.
##  3 2011-03-01 Sales    145729.
##  4 2011-04-01 Sales    116916.
##  5 2011-05-01 Sales    146748.
##  6 2011-06-01 Sales    215207.
##  7 2011-07-01 Sales    115510.
##  8 2011-08-01 Sales    207581.
##  9 2011-09-01 Sales    290214.
## 10 2011-10-01 Sales    199071.
## # ... with 86 more rows
…
rolling <- subset(rolling, select = -c(daSales, daProfits, daShipping))
rolling

## # A tibble: 1,430 x 9
##    Order.Date sales_01da sales_07da sales_30da sales_360da profits_01da
##    <date>          <dbl>      <dbl>      <dbl>       <dbl>        <dbl>
##  1 2011-01-01       809.        NA          NA          NA       199.  
##  2 2011-01-02       314.        NA          NA          NA         3.12
##  3 2011-01-03      4504.        NA          NA          NA       185.  
##  4 2011-01-04      2809.      2835.         NA          NA       635.  
##  5 2011-01-05      3662.      3618.         NA          NA      1053.  
##  6 2011-01-06       623.      3690.         NA          NA        86.1 
##  7 2011-01-07      7123.      4017.         NA          NA      1541.  
##  8 2011-01-08      6293.      4537.         NA          NA      -631.  
##  9 2011-01-09       814.      4390.         NA          NA      -118.  
## 10 2011-01-10      6794.      4670.         NA          NA      1444.  
## # ... with 1,420 more rows, and 3 more variables: profits_07da <dbl>,
## #   profits_30da <dbl>, profits_360da <dbl>
…
